/* XPM */
static char *dummy[]={
"48 48 3 1",
". c #000000",
"# c #0000ff",
"a c #999999",
"................................................",
"................................................",
"................................................",
"...............###...###...###..................",
"...............###...###...###..................",
"...............###...###...###..................",
"................................................",
"................................................",
"................................................",
"...............###...###...###..................",
"...............###...###...###..................",
"...............###...###...###..................",
"................................................",
"................................................",
"................................................",
"...###...###...###...###...###...###...###......",
"...###...###...###...###...###...###...###......",
"...###...###...###...###...###...###...###......",
"................................................",
"................................................",
"................................................",
"...###...###...###...aaa...###...###...###......",
"...###...###...###...aaa...###...###...###......",
"...###...###...###...aaa...###...###...###......",
"................................................",
"................................................",
"................................................",
"...###...###...###...###...###...###...###......",
"...###...###...###...###...###...###...###......",
"...###...###...###...###...###...###...###......",
"................................................",
"................................................",
"................................................",
"...............###...###...###..................",
"...............###...###...###..................",
"...............###...###...###..................",
"................................................",
"................................................",
"................................................",
"...............###...###...###..................",
"...............###...###...###..................",
"...............###...###...###..................",
"................................................",
"................................................",
"................................................",
"................................................",
"................................................",
"................................................"};
